C:\Users\werapan\Documents\NetBeansProjects\OXOOP\src\main\java\com\werapan\oxoop\Game.java
C:\Users\werapan\Documents\NetBeansProjects\OXOOP\src\main\java\com\werapan\oxoop\Board.java
C:\Users\werapan\Documents\NetBeansProjects\OXOOP\src\main\java\com\werapan\oxoop\Player.java
C:\Users\werapan\Documents\NetBeansProjects\OXOOP\src\main\java\com\werapan\oxoop\OXOOP.java
